…
ℹ Specify the column types or set `show_col_types = FALSE` to quiet this message.
> 
> my_recipe <- recipe(ACTION ~ ., data = train) %>%
+   step_mutate_at(all_numeric_predictors(), fn = factor) %>% # turn all numeric features into factors
+   step_other(all_nominal_predictors(), threshold = .001) %>% 
+   step_dummy(all_nominal_predictors()) # dummy variable encoding
> 
> 
> # NOTE: some of these step functions are not appropriate to use together 13
> # apply the recipe to your data
> prepped_recipe <- prep(my_recipe)
> baked <- bake(prepped_recipe, new_data = NULL)
> 
> baked
# A tibble: 32,769 × 1,050
   ACTION RESOURCE_X917 RESOURCE_X971 RESOURCE_X972 RESOURCE_X1020
   <fct>          <dbl>         <dbl>         <dbl>          <dbl>
 1 1                  0             0             0              0
 2 1                  0             0             0              0
 3 1                  0             0             0              0
 4 1                  0             0             0              0
 5 1                  0             0             0              0
 6 0                  0             0             0              0
 7 1                  0             0             0              0
 8 1                  0             0             0              0
 9 1                  0             0             0              0
10 1                  0             0             0              0
# ℹ 32,759 more rows
# ℹ 1,045 more variables: RESOURCE_X1937 <dbl>, RESOURCE_X1969 <dbl>,
#   RESOURCE_X3130 <dbl>, RESOURCE_X3264 <dbl>, RESOURCE_X3853 <dbl>,
#   RESOURCE_X4675 <dbl>, RESOURCE_X5112 <dbl>, RESOURCE_X5173 <dbl>,
#   RESOURCE_X6977 <dbl>, RESOURCE_X7543 <dbl>, RESOURCE_X7678 <dbl>,
#   RESOURCE_X13878 <dbl>, RESOURCE_X14354 <dbl>, RESOURCE_X14570 <dbl>,
#   RESOURCE_X15022 <dbl>, RESOURCE_X15064 <dbl>, RESOURCE_X15369 <dbl>, …
…
